Lecture OK
Formule :
---------
(((a^=v AND not (b^=v)) <=> (not (d^=v) AND c^=v)) AND ((b^=v AND not (a^=v)) <=> (d^=v AND not (c^=v))))
Forme normale négative :
((((b^=v AND (a^+ OR a^- OR a^=f)) AND (d^=v AND (c^+ OR c^=f OR c^-))) OR ((a^=v OR (b^+ OR b^- OR b^=f)) AND ((d^=f OR d^- OR d^+) OR c^=v))) AND (((a^=v AND (b^=f OR b^- OR b^+)) AND ((d^=f OR d^- OR d^+) AND c^=v)) OR (((a^=f OR a^+ OR a^-) OR b^=v) AND (d^=v OR (c^=f OR c^+ OR c^-)))))
Table de vérité :
-----------------------------
| a  | b  | c  | d  | value |
|----|----|----|----|-------|
| =f | =f | =f | =f | true  |
| =t | =f | =f | =f | false |
| +  | =f | =f | =f | true  |
| -  | =f | =f | =f | true  |
| =f | =t | =f | =f | false |
| =t | =t | =f | =f | true  |
| +  | =t | =f | =f | false |
| -  | =t | =f | =f | false |
| =f | +  | =f | =f | true  |
| =t | +  | =f | =f | false |
| +  | +  | =f | =f | true  |
| -  | +  | =f | =f | true  |
| =f | -  | =f | =f | true  |
| =t | -  | =f | =f | false |
| +  | -  | =f | =f | true  |
| -  | -  | =f | =f | true  |
| =f | =f | =t | =f | false |
| =t | =f | =t | =f | true  |
| +  | =f | =t | =f | false |
| -  | =f | =t | =f | false |
| =f | =t | =t | =f | false |
| =t | =t | =t | =f | false |
| +  | =t | =t | =f | false |
| -  | =t | =t | =f | false |
| =f | +  | =t | =f | false |
| =t | +  | =t | =f | true  |
| +  | +  | =t | =f | false |
| -  | +  | =t | =f | false |
| =f | -  | =t | =f | false |
| =t | -  | =t | =f | true  |
| +  | -  | =t | =f | false |
| -  | -  | =t | =f | false |
| =f | =f | +  | =f | true  |
| =t | =f | +  | =f | false |
| +  | =f | +  | =f | true  |
| -  | =f | +  | =f | true  |
| =f | =t | +  | =f | false |
| =t | =t | +  | =f | true  |
| +  | =t | +  | =f | false |
| -  | =t | +  | =f | false |
| =f | +  | +  | =f | true  |
| =t | +  | +  | =f | false |
| +  | +  | +  | =f | true  |
| -  | +  | +  | =f | true  |
| =f | -  | +  | =f | true  |
| =t | -  | +  | =f | false |
| +  | -  | +  | =f | true  |
| -  | -  | +  | =f | true  |
| =f | =f | -  | =f | true  |
| =t | =f | -  | =f | false |
| +  | =f | -  | =f | true  |
| -  | =f | -  | =f | true  |
| =f | =t | -  | =f | false |
| =t | =t | -  | =f | true  |
| +  | =t | -  | =f | false |
| -  | =t | -  | =f | false |
| =f | +  | -  | =f | true  |
| =t | +  | -  | =f | false |
| +  | +  | -  | =f | true  |
| -  | +  | -  | =f | true  |
| =f | -  | -  | =f | true  |
| =t | -  | -  | =f | false |
| +  | -  | -  | =f | true  |
| -  | -  | -  | =f | true  |
| =f | =f | =f | =t | false |
| =t | =f | =f | =t | false |
| +  | =f | =f | =t | false |
| -  | =f | =f | =t | false |
| =f | =t | =f | =t | true  |
| =t | =t | =f | =t | false |
| +  | =t | =f | =t | true  |
| -  | =t | =f | =t | true  |
| =f | +  | =f | =t | false |
| =t | +  | =f | =t | false |
| +  | +  | =f | =t | false |
| -  | +  | =f | =t | false |
| =f | -  | =f | =t | false |
| =t | -  | =f | =t | false |
| +  | -  | =f | =t | false |
| -  | -  | =f | =t | false |
| =f | =f | =t | =t | true  |
| =t | =f | =t | =t | false |
| +  | =f | =t | =t | true  |
| -  | =f | =t | =t | true  |
| =f | =t | =t | =t | false |
| =t | =t | =t | =t | true  |
| +  | =t | =t | =t | false |
| -  | =t | =t | =t | false |
| =f | +  | =t | =t | true  |
| =t | +  | =t | =t | false |
| +  | +  | =t | =t | true  |
| -  | +  | =t | =t | true  |
| =f | -  | =t | =t | true  |
| =t | -  | =t | =t | false |
| +  | -  | =t | =t | true  |
| -  | -  | =t | =t | true  |
| =f | =f | +  | =t | false |
| =t | =f | +  | =t | false |
| +  | =f | +  | =t | false |
| -  | =f | +  | =t | false |
| =f | =t | +  | =t | true  |
| =t | =t | +  | =t | false |
| +  | =t | +  | =t | true  |
| -  | =t | +  | =t | true  |
| =f | +  | +  | =t | false |
| =t | +  | +  | =t | false |
| +  | +  | +  | =t | false |
| -  | +  | +  | =t | false |
| =f | -  | +  | =t | false |
| =t | -  | +  | =t | false |
| +  | -  | +  | =t | false |
| -  | -  | +  | =t | false |
| =f | =f | -  | =t | false |
| =t | =f | -  | =t | false |
| +  | =f | -  | =t | false |
| -  | =f | -  | =t | false |
| =f | =t | -  | =t | true  |
| =t | =t | -  | =t | false |
| +  | =t | -  | =t | true  |
| -  | =t | -  | =t | true  |
| =f | +  | -  | =t | false |
| =t | +  | -  | =t | false |
| +  | +  | -  | =t | false |
| -  | +  | -  | =t | false |
| =f | -  | -  | =t | false |
| =t | -  | -  | =t | false |
| +  | -  | -  | =t | false |
| -  | -  | -  | =t | false |
| =f | =f | =f | +  | true  |
| =t | =f | =f | +  | false |
| +  | =f | =f | +  | true  |
| -  | =f | =f | +  | true  |
| =f | =t | =f | +  | false |
| =t | =t | =f | +  | true  |
| +  | =t | =f | +  | false |
| -  | =t | =f | +  | false |
| =f | +  | =f | +  | true  |
| =t | +  | =f | +  | false |
| +  | +  | =f | +  | true  |
| -  | +  | =f | +  | true  |
| =f | -  | =f | +  | true  |
| =t | -  | =f | +  | false |
| +  | -  | =f | +  | true  |
| -  | -  | =f | +  | true  |
| =f | =f | =t | +  | false |
| =t | =f | =t | +  | true  |
| +  | =f | =t | +  | false |
| -  | =f | =t | +  | false |
| =f | =t | =t | +  | false |
| =t | =t | =t | +  | false |
| +  | =t | =t | +  | false |
| -  | =t | =t | +  | false |
| =f | +  | =t | +  | false |
| =t | +  | =t | +  | true  |
| +  | +  | =t | +  | false |
| -  | +  | =t | +  | false |
| =f | -  | =t | +  | false |
| =t | -  | =t | +  | true  |
| +  | -  | =t | +  | false |
| -  | -  | =t | +  | false |
| =f | =f | +  | +  | true  |
| =t | =f | +  | +  | false |
| +  | =f | +  | +  | true  |
| -  | =f | +  | +  | true  |
| =f | =t | +  | +  | false |
| =t | =t | +  | +  | true  |
| +  | =t | +  | +  | false |
| -  | =t | +  | +  | false |
| =f | +  | +  | +  | true  |
| =t | +  | +  | +  | false |
| +  | +  | +  | +  | true  |
| -  | +  | +  | +  | true  |
| =f | -  | +  | +  | true  |
| =t | -  | +  | +  | false |
| +  | -  | +  | +  | true  |
| -  | -  | +  | +  | true  |
| =f | =f | -  | +  | true  |
| =t | =f | -  | +  | false |
| +  | =f | -  | +  | true  |
| -  | =f | -  | +  | true  |
| =f | =t | -  | +  | false |
| =t | =t | -  | +  | true  |
| +  | =t | -  | +  | false |
| -  | =t | -  | +  | false |
| =f | +  | -  | +  | true  |
| =t | +  | -  | +  | false |
| +  | +  | -  | +  | true  |
| -  | +  | -  | +  | true  |
| =f | -  | -  | +  | true  |
| =t | -  | -  | +  | false |
| +  | -  | -  | +  | true  |
| -  | -  | -  | +  | true  |
| =f | =f | =f | -  | true  |
| =t | =f | =f | -  | false |
| +  | =f | =f | -  | true  |
| -  | =f | =f | -  | true  |
| =f | =t | =f | -  | false |
| =t | =t | =f | -  | true  |
| +  | =t | =f | -  | false |
| -  | =t | =f | -  | false |
| =f | +  | =f | -  | true  |
| =t | +  | =f | -  | false |
| +  | +  | =f | -  | true  |
| -  | +  | =f | -  | true  |
| =f | -  | =f | -  | true  |
| =t | -  | =f | -  | false |
| +  | -  | =f | -  | true  |
| -  | -  | =f | -  | true  |
| =f | =f | =t | -  | false |
| =t | =f | =t | -  | true  |
| +  | =f | =t | -  | false |
| -  | =f | =t | -  | false |
| =f | =t | =t | -  | false |
| =t | =t | =t | -  | false |
| +  | =t | =t | -  | false |
| -  | =t | =t | -  | false |
| =f | +  | =t | -  | false |
| =t | +  | =t | -  | true  |
| +  | +  | =t | -  | false |
| -  | +  | =t | -  | false |
| =f | -  | =t | -  | false |
| =t | -  | =t | -  | true  |
| +  | -  | =t | -  | false |
| -  | -  | =t | -  | false |
| =f | =f | +  | -  | true  |
| =t | =f | +  | -  | false |
| +  | =f | +  | -  | true  |
| -  | =f | +  | -  | true  |
| =f | =t | +  | -  | false |
| =t | =t | +  | -  | true  |
| +  | =t | +  | -  | false |
| -  | =t | +  | -  | false |
| =f | +  | +  | -  | true  |
| =t | +  | +  | -  | false |
| +  | +  | +  | -  | true  |
| -  | +  | +  | -  | true  |
| =f | -  | +  | -  | true  |
| =t | -  | +  | -  | false |
| +  | -  | +  | -  | true  |
| -  | -  | +  | -  | true  |
| =f | =f | -  | -  | true  |
| =t | =f | -  | -  | false |
| +  | =f | -  | -  | true  |
| -  | =f | -  | -  | true  |
| =f | =t | -  | -  | false |
| =t | =t | -  | -  | true  |
| +  | =t | -  | -  | false |
| -  | =t | -  | -  | false |
| =f | +  | -  | -  | true  |
| =t | +  | -  | -  | false |
| +  | +  | -  | -  | true  |
| -  | +  | -  | -  | true  |
| =f | -  | -  | -  | true  |
| =t | -  | -  | -  | false |
| +  | -  | -  | -  | true  |
| -  | -  | -  | -  | true  |
-----------------------------

